{
"version": "0.2.0",
"configurations": [
    {
        "type": "java",
        "name": "CodeLens (Launch) - BitcoinApplication",
        "request": "launch",
        "mainClass": "com.example.bitcoin.BitcoinApplication",
        "projectName": "bitcoin"
    },
    {
        "type": "java",
        "name": "Debug (Launch) - Current File",
        "request": "launch",
        "mainClass": "${file}"
    },
    {
        "type": "java",
        "name": "Debug (Attach) - Remote",
        "request": "attach",
        "hostName": "localhost",
        "port": 5005
    }
]
}
